{
    "btagging" : {
        "doubles": [],
        "floats": [
            "DL1r_pu",
            "DL1r_pc",
            "DL1r_pb",
            "DL1dv01_VR_pu",
            "DL1dv01_VR_pc",
            "DL1dv01_VR_pb",
            "GN2v00_pu",
            "GN2v00_pc",
            "GN2v00_pb"
        ],
        "chars": []
    },
    "jet" : {
        "ints": [
            "HadronConeExclTruthLabelID",
            "HadronConeExclExtendedTruthLabelID",
            "HadronGhostTruthLabelID",
            "HadronGhostExtendedTruthLabelID"
        ],
        "floats": [
            "pt",
            "eta",
            "mass",
            "energy",
            "relativeDeltaRToVRJet",
            "deltaRToVRJet"
        ]
    }
}