{
    "file": "trigger_emtopo.json",
    "dumper": {
        "hits": {
            "container_name": "PixelClusters",
            "origin": "beamspot",
            "output_size": 1000,
            "distance_to_jet": 0.1,
            "save_endcap_hits": true,
            "save_only_clean_hits": true,
            "save_sct": false,
            "output_name": "hits",
            "variables": [
                "valid",
                "z_local",
                "dphi",
                "radius_local",
                "layer",
                "isBarrel",
                "j",
                "a",
                "b"
            ]
        }
    }
}
